…
### Dimension values and filter shortcuts

Each dimension has a set of valid values.
[`dimension_values()`](https://lchansson.github.io/rTrafa/reference/dimension_values.md)
returns them as a tibble:

``` r
ar_vals <- dimension_values(dims, "ar")
```

``` r
ar_vals
#> # A tibble: 27 × 3
#>    name    label      type  
#>    <chr>   <chr>      <chr> 
#>  1 senaste Senaste    filter
#>  2 forra   Föregående filter
#>  3 2001    2001       value 
#>  4 2002    2002       value 
#>  5 2003    2003       value 
#>  6 2004    2004       value 
#>  7 2005    2005       value 
#>  8 2006    2006       value 
#>  9 2007    2007       value 
#> 10 2008    2008       value 
#> # ℹ 17 more rows
```
…
